HW2/CPU/cpu.vcd
$date
	Mon Oct 31 00:17:12 2022
$end
$version
	Icarus Verilog
$end
$timescale
	1ps
$end
$scope module branch $end
$var wire 3 ! fun3 [2:0] $end
$var wire 13 " imm [12:0] $end
$var wire 64 # rs1 [63:0] $end
$var wire 64 $ rs2 [63:0] $end
$var wire 1 % o_addr_vaild $end
$var wire 64 & o_addr [63:0] $end
$upscope $end
$scope module test_cpu $end
$var wire 1 ' MemRead $end
$var wire 1 ( MemWrite $end
$var wire 64 ) i_addr [63:0] $end
$var wire 1 * i_clk $end
$var wire 1 + i_rst_n $end
$var wire 1 , i_valid_addr $end
$var wire 64 - write_addr [63:0] $end
$var wire 64 . write_data [63:0] $end
$var wire 64 / read_data [63:0] $end
$var wire 1 0 i_valid_inst $end
$var wire 32 1 i_inst [31:0] $end
$var wire 1 2 d_valid_data $end
$var wire 1 3 Finish $end
$var reg 1 4 clk $end
$var reg 1 5 rst_n $end
$var integer 32 6 error [31:0] $end
$var integer 32 7 i [31:0] $end
$scope module u_cpu $end
$var wire 1 4 i_clk $end
$var wire 1 + i_rst_n $end
$var wire 1 ' o_d_MemRead $end
$var wire 1 ( o_d_MemWrite $end
$var wire 64 8 o_d_addr [63:0] $end
$var wire 64 9 o_d_data [63:0] $end
$var wire 1 3 o_finish $end
$var wire 64 : o_i_addr [63:0] $end
$var wire 1 , o_i_valid_addr $end
$var wire 1 0 i_i_valid_inst $end
$var wire 32 ; i_i_inst [31:0] $end
$var wire 1 2 i_d_valid_data $end
$var wire 64 < i_d_data [63:0] $end
$var reg 3 = fun3 [2:0] $end
$var reg 13 > imm [12:0] $end
$var reg 1 ? o_d_MemRead_r $end
$var reg 1 @ o_d_MemWrite_r $end
$var reg 64 A o_d_addr_r [63:0] $end
$var reg 64 B o_d_data_r [63:0] $end
$var reg 1 C o_finish_r $end
$var reg 1 D o_i_valid_addr_r $end
$var reg 7 E opcode [6:0] $end
$var reg 5 F rd [4:0] $end
$var reg 5 G rs1 [4:0] $end
$var reg 5 H rs2 [4:0] $end
$upscope $end
$scope module u_data_mem $end
$var wire 1 ' i_MemRead $end
$var wire 1 ( i_MemWrite $end
$var wire 64 I i_addr [63:0] $end
$var wire 1 * i_clk $end
$var wire 64 J i_data [63:0] $end
$var wire 1 + i_rst_n $end
$var wire 1 K i_valid $end
$var wire 64 L o_data [63:0] $end
$var wire 1 2 o_valid $end
$var reg 4 M cs [3:0] $end
$var reg 4 N ns [3:0] $end
$var reg 64 O o_data_r [63:0] $end
$var reg 64 P o_data_w [63:0] $end
$var reg 1 Q o_valid_r $end
$var reg 1 R o_valid_w $end
$var reg 1 S temp_MemRead $end
$var reg 1 T temp_MemRead_w $end
$var reg 1 U temp_MemWrite $end
$var reg 1 V temp_MemWrite_w $end
$var reg 64 W temp_addr [63:0] $end
$var reg 64 X temp_addr_w [63:0] $end
$var reg 64 Y temp_data [63:0] $end
$var reg 64 Z temp_data_w [63:0] $end
$var integer 32 [ i [31:0] $end
$upscope $end
$scope module u_inst_mem $end
$var wire 64 \ i_addr [63:0] $end
$var wire 1 * i_clk $end
$var wire 1 + i_rst_n $end
$var wire 1 , i_valid $end
$var wire 32 ] o_inst [31:0] $end
$var wire 1 0 o_valid $end
$var reg 4 ^ cs [3:0] $end
$var reg 4 _ ns [3:0] $end
$var reg 32 ` o_inst_r [31:0] $end
$var reg 32 a o_inst_w [31:0] $end
$var reg 1 b o_valid_r $end
$var reg 1 c o_valid_w $end
$var reg 64 d temp_addr_r [63:0] $end
$var reg 64 e temp_addr_w [63:0] $end
$upscope $end
$upscope $end
$enddefinitions $end
#0
$dumpvars
bx e
bx d
0c
0b
b0 a
b0 `
bx _
bx ^
b0 ]
bz \
b10000000000 [
bx Z
bx Y
bx X
bx W
xV
xU
xT
xS
xR
xQ
bx P
bx O
bx N
bx M
bx L
xK
bz J
bz I
bx H
bx G
bx F
bx E
xD
xC
bx B
bx A
x@
x?
bx >
bx =
bx <
b0 ;
bz :
bz 9
bz 8
bx 7
b0 6
15
14
x3
x2
b0 1
00
bx /
bz .
bz -
z,
1+
1*
bz )
z(
z'
b0xxxxxxxxxxxxx0 &
x%
bz $
bz #
bz "
bz !
$end
#2500
0V
0T
b0 Z
b0 X
b0x N
b0 P
0R
b0 e
b0x _
0U
0S
b0 Y
b0 W
b0 M
b0 /
b0 <
b0 L
b0 O
02
0Q
b0 d
b0 ^
b10000000000 [
0+
05
#5000
0@
0?
0D
0*
04
#10000
b10000000000 [
1*
14
#15000
0*
04
#20000
b10000000000 [
1*
14
#25000
0*
04
#30000
b10000000000 [
1*
14
#35000
0*
04
#40000
b10000000000 [
1*
14
#45000
0*
04
#50000
b0x ^
b0x M
b10000000000 [
1*
14
1+
15
#55000
0*
04
#60000
b10000000000 [
1*
14
#65000
0*
04
#70000
b10000000000 [
1*
14
#75000
0*
04
#80000
b10000000000 [
1*
14
#85000
0*
04
#90000
b10000000000 [
1*
14
#95000
0*
04
#100000
b10000000000 [
1*
14
#105000
0*
04
#110000
b10000000000 [
1*
14
#115000
0*
04
#120000
b10000000000 [
1*
14
#125000
0*
04
#130000
b10000000000 [
1*
14
#135000
0*
04
#140000
b10000000000 [
1*
14
#145000
0*
04
#150000
b10000000000 [
1*
14
#155000
0*
04
#160000
b10000000000 [
1*
14
#165000
0*
04
#170000
b10000000000 [
1*
14
#175000
0*
04
#180000
b10000000000 [
1*
14
#185000
0*
04
#190000
b10000000000 [
1*
14
#195000
0*
04
#200000
b10000000000 [
1*
14
#205000
0*
04
#210000
b10000000000 [
1*
14
#215000
0*
04
#220000
b10000000000 [
1*
14
#225000
0*
04
#230000
b10000000000 [
1*
14
#235000
0*
04
#240000
b10000000000 [
1*
14
#245000
0*
04
#250000
b10000000000 [
1*
14
#255000
0*
04
#260000
b10000000000 [
1*
14
#265000
0*
04
#270000
b10000000000 [
1*
14
#275000
0*
04
#280000
b10000000000 [
1*
14
#285000
0*
04
#290000
b10000000000 [
1*
14
#295000
0*
04
#300000
b10000000000 [
1*
14
#305000
0*
04
#310000
b10000000000 [
1*
14
#315000
0*
04
#320000
b10000000000 [
1*
14
#325000
0*
04
#330000
b10000000000 [
1*
14
#335000
0*
04
#340000
b10000000000 [
1*
14
#345000
0*
04
#350000
b10000000000 [
1*
14
#355000
0*
04
#360000
b10000000000 [
1*
14
#365000
0*
04
#370000
b10000000000 [
1*
14
#375000
0*
04
#380000
b10000000000 [
1*
14
#385000
0*
04
#390000
b10000000000 [
1*
14
#395000
0*
04
#400000
b10000000000 [
1*
14
#405000
0*
04
#410000
b10000000000 [
1*
14
#415000
0*
04
#420000
b10000000000 [
1*
14
#425000
0*
04
#430000
b10000000000 [
1*
14
#435000
0*
04
#440000
b10000000000 [
1*
14
#445000
0*
04
#450000
b10000000000 [
1*
14
#455000
0*
04
#460000
b10000000000 [
1*
14
#465000
0*
04
#470000
b10000000000 [
1*
14
#475000
0*
04
#480000
b10000000000 [
1*
14
#485000
0*
04
#490000
b10000000000 [
1*
14
#495000
0*
04
#500000
b10000000000 [
1*
14
#505000
0*
04
#510000
b10000000000 [
1*
14
#515000
0*
04
#520000
b10000000000 [
1*
14
#525000
0*
04
#530000
b10000000000 [
1*
14
#535000
0*
04
#540000
b10000000000 [
1*
14
#545000
0*
04
#550000
b10000000000 [
1*
14
#555000
0*
04
#560000
b10000000000 [
1*
14
#565000
0*
04
#570000
b10000000000 [
1*
14
#575000
0*
04
#580000
b10000000000 [
1*
14
#585000
0*
04
#590000
b10000000000 [
1*
14
#595000
0*
04
#600000
b10000000000 [
1*
14
#605000
0*
04
#610000
b10000000000 [
1*
14
#615000
0*
04
#620000
b10000000000 [
1*
14
#625000
0*
04
#630000
b10000000000 [
1*
14
#635000
0*
04
#640000
b10000000000 [
1*
14
#645000
0*
04
#650000
b10000000000 [
1*
14
#655000
0*
04
#660000
b10000000000 [
1*
14
#665000
0*
04
#670000
b10000000000 [
1*
14
#675000
0*
04
#680000
b10000000000 [
1*
14
#685000
0*
04
#690000
b10000000000 [
1*
14
#695000
0*
04
#700000
b10000000000 [
1*
14
#705000
0*
04
#710000
b10000000000 [
1*
14
#715000
0*
04
#720000
b10000000000 [
1*
14
#725000
0*
04
#730000
b10000000000 [
1*
14
#735000
0*
04
#740000
b10000000000 [
1*
14
#745000
0*
04
#750000
b10000000000 [
1*
14
#755000
0*
04
#760000
b10000000000 [
1*
14
#765000
0*
04
#770000
b10000000000 [
1*
14
#775000
0*
04
#780000
b10000000000 [
1*
14
#785000
0*
04
#790000
b10000000000 [
1*
14
#795000
0*
04
#800000
b10000000000 [
1*
14
#805000
0*
04
#810000
b10000000000 [
1*
14
#815000
0*
04
#820000
b10000000000 [
1*
14
#825000
0*
04
#830000
b10000000000 [
1*
14
#835000
0*
04
#840000
b10000000000 [
1*
14
#845000
0*
04
#850000
b10000000000 [
1*
14
#855000
0*
04
#860000
b10000000000 [
1*
14
#865000
0*
04
#870000
b10000000000 [
1*
14
#875000
0*
04
#880000
b10000000000 [
1*
14
#885000
0*
04
#890000
b10000000000 [
1*
14
#895000
0*
04
#900000
b10000000000 [
1*
14
#905000
0*
04
#910000
b10000000000 [
1*
14
#915000
0*
04
#920000
b10000000000 [
1*
14
#925000
0*
04
#930000
b10000000000 [
1*
14
#935000
0*
04
#940000
b10000000000 [
1*
14
#945000
0*
04
#950000
b10000000000 [
1*
14
#955000
0*
04
#960000
b10000000000 [
1*
14
#965000
0*
04
#970000
b10000000000 [
1*
14
#975000
0*
04
#980000
b10000000000 [
1*
14
#985000
0*
04
#990000
b10000000000 [
1*
14
#995000
0*
04
#1000000
b10000000000 [
1*
14
#1005000
0*
04
#1010000
b10000000000 [
1*
14
#1015000
0*
04
#1020000
b10000000000 [
1*
14
#1025000
0*
04
#1030000
b10000000000 [
1*
14
#1035000
0*
04
#1040000
b10000000000 [
1*
14
#1045000
0*
04
#1050000
b10000000000 [
1*
14
#1055000
0*
04
#1060000
b10000000000 [
1*
14
#1065000
0*
04
#1070000
b10000000000 [
1*
14
#1075000
0*
04
#1080000
b10000000000 [
1*
14
#1085000
0*
04
#1090000
b10000000000 [
1*
14
#1095000
0*
04
#1100000
b10000000000 [
1*
14
#1105000
0*
04
#1110000
b10000000000 [
1*
14
#1115000
0*
04
#1120000
b10000000000 [
1*
14
#1125000
0*
04
#1130000
b10000000000 [
1*
14
#1135000
0*
04
#1140000
b10000000000 [
1*
14
#1145000
0*
04
#1150000
b10000000000 [
1*
14
#1155000
0*
04
#1160000
b10000000000 [
1*
14
#1165000
0*
04
#1170000
b10000000000 [
1*
14
#1175000
0*
04
#1180000
b10000000000 [
1*
14
#1185000
0*
04
#1190000
b10000000000 [
1*
14
#1195000
0*
04
#1200000
b10000000000 [
1*
14
#1205000
0*
04
#1210000
b10000000000 [
1*
14
#1215000
0*
04
#1220000
b10000000000 [
1*
14
#1225000
0*
04
#1230000
b10000000000 [
1*
14
#1235000
0*
04
#1240000
b10000000000 [
1*
14
#1245000
0*
04
#1250000
b10000000000 [
1*
14
#1255000
0*
04
#1260000
b10000000000 [
1*
14
#1265000
0*
04
#1270000
b10000000000 [
1*
14
#1275000
0*
04
#1280000
b10000000000 [
1*
14
#1285000
0*
04
#1290000
b10000000000 [
1*
14
#1295000
0*
04
#1300000
b10000000000 [
1*
14
#1305000
0*
04
#1310000
b10000000000 [
1*
14
#1315000
0*
04
#1320000
b10000000000 [
1*
14
#1325000
0*
04
#1330000
b10000000000 [
1*
14
#1335000
0*
04
#1340000
b10000000000 [
1*
14
#1345000
0*
04
#1350000
b10000000000 [
1*
14
#1355000
0*
04
#1360000
b10000000000 [
1*
14
#1365000
0*
04
#1370000
b10000000000 [
1*
14
#1375000
0*
04
#1380000
b10000000000 [
1*
14
#1385000
0*
04
#1390000
b10000000000 [
1*
14
#1395000
0*
04
#1400000
b10000000000 [
1*
14
#1405000
0*
04
#1410000
b10000000000 [
1*
14
#1415000
0*
04
#1420000
b10000000000 [
1*
14
#1425000
0*
04
#1430000
b10000000000 [
1*
14
#1435000
0*
04
#1440000
b10000000000 [
1*
14
#1445000
0*
04
#1450000
b10000000000 [
1*
14
#1455000
0*
04
#1460000
b10000000000 [
1*
14
#1465000
0*
04
#1470000
b10000000000 [
1*
14
#1475000
0*
04
#1480000
b10000000000 [
1*
14
#1485000
0*
04
#1490000
b10000000000 [
1*
14
#1495000
0*
04
#1500000
b10000000000 [
1*
14
#1505000
0*
04
#1510000
b10000000000 [
1*
14
#1515000
0*
04
#1520000
b10000000000 [
1*
14
#1525000
0*
04
#1530000
b10000000000 [
1*
14
#1535000
0*
04
#1540000
b10000000000 [
1*
14
#1545000
0*
04
#1550000
b10000000000 [
1*
14
#1555000
0*
04
#1560000
b10000000000 [
1*
14
#1565000
0*
04
#1570000
b10000000000 [
1*
14
#1575000
0*
04
#1580000
b10000000000 [
1*
14
#1585000
0*
04
#1590000
b10000000000 [
1*
14
#1595000
0*
04
#1600000
b10000000000 [
1*
14
#1605000
0*
04
#1610000
b10000000000 [
1*
14
#1615000
0*
04
#1620000
b10000000000 [
1*
14
#1625000
0*
04
#1630000
b10000000000 [
1*
14
#1635000
0*
04
#1640000
b10000000000 [
1*
14
#1645000
0*
04
#1650000
b10000000000 [
1*
14
#1655000
0*
04
#1660000
b10000000000 [
1*
14
#1665000
0*
04
#1670000
b10000000000 [
1*
14
#1675000
0*
04
#1680000
b10000000000 [
1*
14
#1685000
0*
04
#1690000
b10000000000 [
1*
14
#1695000
0*
04
#1700000
b10000000000 [
1*
14
#1705000
0*
04
#1710000
b10000000000 [
1*
14
#1715000
0*
04
#1720000
b10000000000 [
1*
14
#1725000
0*
04
#1730000
b10000000000 [
1*
14
#1735000
0*
04
#1740000
b10000000000 [
1*
14
#1745000
0*
04
#1750000
b10000000000 [
1*
14
#1755000
0*
04
#1760000
b10000000000 [
1*
14
#1765000
0*
04
#1770000
b10000000000 [
1*
14
#1775000
0*
04
#1780000
b10000000000 [
1*
14
#1785000
0*
04
#1790000
b10000000000 [
1*
14
#1795000
0*
04
#1800000
b10000000000 [
1*
14
#1805000
0*
04
#1810000
b10000000000 [
1*
14
#1815000
0*
04
#1820000
b10000000000 [
1*
14
#1825000
0*
04
#1830000
b10000000000 [
1*
14
#1835000
0*
04
#1840000
b10000000000 [
1*
14
#1845000
0*
04
#1850000
b10000000000 [
1*
14
#1855000
0*
04
#1860000
b10000000000 [
1*
14
#1865000
0*
04
#1870000
b10000000000 [
1*
14
#1875000
0*
04
#1880000
b10000000000 [
1*
14
#1885000
0*
04
#1890000
b10000000000 [
1*
14
#1895000
0*
04
#1900000
b10000000000 [
1*
14
#1905000
0*
04
#1910000
b10000000000 [
1*
14
#1915000
0*
04
#1920000
b10000000000 [
1*
14
#1925000
0*
04
#1930000
b10000000000 [
1*
14
#1935000
0*
04
#1940000
b10000000000 [
1*
14
#1945000
0*
04
#1950000
b10000000000 [
1*
14
#1955000
0*
04
#1960000
b10000000000 [
1*
14
#1965000
0*
04
#1970000
b10000000000 [
1*
14
#1975000
0*
04
#1980000
b10000000000 [
1*
14
#1985000
0*
04
#1990000
b10000000000 [
1*
14
#1995000
0*
04
#2000000
b10000000000 [
1*
14
#2005000
0*
04
#2010000
b10000000000 [
1*
14
#2015000
0*
04
#2020000
b10000000000 [
1*
14
#2025000
0*
04
#2030000
b10000000000 [
1*
14
#2035000
0*
04
#2040000
b10000000000 [
1*
14
#2045000
0*
04
#2050000
b10000000000 [
1*
14
#2055000
0*
04
#2060000
b10000000000 [
1*
14
#2065000
0*
04
#2070000
b10000000000 [
1*
14
#2075000
0*
04
#2080000
b10000000000 [
1*
14
#2085000
0*
04
#2090000
b10000000000 [
1*
14
#2095000
0*
04
#2100000
b10000000000 [
1*
14
#2105000
0*
04
#2110000
b10000000000 [
1*
14
#2115000
0*
04
#2120000
b10000000000 [
1*
14
#2125000
0*
04
#2130000
b10000000000 [
1*
14
#2135000
0*
04
#2140000
b10000000000 [
1*
14
#2145000
0*
04
#2150000
b10000000000 [
1*
14
#2155000
0*
04
#2160000
b10000000000 [
1*
14
#2165000
0*
04
#2170000
b10000000000 [
1*
14
#2175000
0*
04
#2180000
b10000000000 [
1*
14
#2185000
0*
04
#2190000
b10000000000 [
1*
14
#2195000
0*
04
#2200000
b10000000000 [
1*
14
#2205000
0*
04
#2210000
b10000000000 [
1*
14
#2215000
0*
04
#2220000
b10000000000 [
1*
14
#2225000
0*
04
#2230000
b10000000000 [
1*
14
#2235000
0*
04
#2240000
b10000000000 [
1*
14
#2245000
0*
04
#2250000
b10000000000 [
1*
14
#2255000
0*
04
#2260000
b10000000000 [
1*
14
#2265000
0*
04
#2270000
b10000000000 [
1*
14
#2275000
0*
04
#2280000
b10000000000 [
1*
14
#2285000
0*
04
#2290000
b10000000000 [
1*
14
#2295000
0*
04
#2300000
b10000000000 [
1*
14
#2305000
0*
04
#2310000
b10000000000 [
1*
14
#2315000
0*
04
#2320000
b10000000000 [
1*
14
#2325000
0*
04
#2330000
b10000000000 [
1*
14
#2335000
0*
04
#2340000
b10000000000 [
1*
14
#2345000
0*
04
#2350000
b10000000000 [
1*
14
#2355000
0*
04
#2360000
b10000000000 [
1*
14
#2365000
0*
04
#2370000
b10000000000 [
1*
14
#2375000
0*
04
#2380000
b10000000000 [
1*
14
#2385000
0*
04
#2390000
b10000000000 [
1*
14
#2395000
0*
04
#2400000
b10000000000 [
1*
14
#2405000
0*
04
#2410000
b10000000000 [
1*
14
#2415000
0*
04
#2420000
b10000000000 [
1*
14
#2425000
0*
04
#2430000
b10000000000 [
1*
14
#2435000
0*
04
#2440000
b10000000000 [
1*
14
#2445000
0*
04
#2450000
b10000000000 [
1*
14
#2455000
0*
04
#2460000
b10000000000 [
1*
14
#2465000
0*
04
#2470000
b10000000000 [
1*
14
#2475000
0*
04
#2480000
b10000000000 [
1*
14
#2485000
0*
04
#2490000
b10000000000 [
1*
14
#2495000
0*
04
#2500000
b10000000000 [
1*
14
#2505000
0*
04
#2510000
b10000000000 [
1*
14
#2515000
0*
04
#2520000
b10000000000 [
1*
14
#2525000
0*
04
#2530000
b10000000000 [
1*
14
#2535000
0*
04
#2540000
b10000000000 [
1*
14
#2545000
0*
04
#2550000
b10000000000 [
1*
14
#2555000
0*
04
#2560000
b10000000000 [
1*
14
#2565000
0*
04
#2570000
b10000000000 [
1*
14
#2575000
0*
04
#2580000
b10000000000 [
1*
14
#2585000
0*
04
#2590000
b10000000000 [
1*
14
#2595000
0*
04
#2600000
b10000000000 [
1*
14
#2605000
0*
04
#2610000
b10000000000 [
1*
14
#2615000
0*
04
#2620000
b10000000000 [
1*
14
#2625000
0*
04
#2630000
b10000000000 [
1*
14
#2635000
0*
04
#2640000
b10000000000 [
1*
14
#2645000
0*
04
#2650000
b10000000000 [
1*
14
#2655000
0*
04
#2660000
b10000000000 [
1*
14
#2665000
0*
04
#2670000
b10000000000 [
1*
14
#2675000
0*
04
#2680000
b10000000000 [
1*
14
#2685000
0*
04
#2690000
b10000000000 [
1*
14
#2695000
0*
04
#2700000
b10000000000 [
1*
14
#2705000
0*
04
#2710000
b10000000000 [
1*
14
#2715000
0*
04
#2720000
b10000000000 [
1*
14
#2725000
0*
04
#2730000
b10000000000 [
1*
14
#2735000
0*
04
#2740000
b10000000000 [
1*
14
#2745000
0*
04
#2750000
b10000000000 [
1*
14
#2755000
0*
04
#2760000
b10000000000 [
1*
14
#2765000
0*
04
#2770000
b10000000000 [
1*
14
#2775000
0*
04
#2780000
b10000000000 [
1*
14
#2785000
0*
04
#2790000
b10000000000 [
1*
14
#2795000
0*
04
#2800000
b10000000000 [
1*
14
#2805000
0*
04
#2810000
b10000000000 [
1*
14
#2815000
0*
04
#2820000
b10000000000 [
1*
14
#2825000
0*
04
#2830000
b10000000000 [
1*
14
#2835000
0*
04
#2840000
b10000000000 [
1*
14
#2845000
0*
04
#2850000
b10000000000 [
1*
14
#2855000
0*
04
#2860000
b10000000000 [
1*
14
#2865000
0*
04
#2870000
b10000000000 [
1*
14
#2875000
0*
04
#2880000
b10000000000 [
1*
14
#2885000
0*
04
#2890000
b10000000000 [
1*
14
#2895000
0*
04
#2900000
b10000000000 [
1*
14
#2905000
0*
04
#2910000
b10000000000 [
1*
14
#2915000
0*
04
#2920000
b10000000000 [
1*
14
#2925000
0*
04
#2930000
b10000000000 [
1*
14
#2935000
0*
04
#2940000
b10000000000 [
1*
14
#2945000
0*
04
#2950000
b10000000000 [
1*
14
#2955000
0*
04
#2960000
b10000000000 [
1*
14
#2965000
0*
04
#2970000
b10000000000 [
1*
14
#2975000
0*
04
#2980000
b10000000000 [
1*
14
#2985000
0*
04
#2990000
b10000000000 [
1*
14
#2995000
0*
04
#3000000
b10000000000 [
1*
14
#3005000
0*
04
#3010000
b10000000000 [
1*
14
#3015000
0*
04
#3020000
b10000000000 [
1*
14
#3025000
0*
04
#3030000
b10000000000 [
1*
14
#3035000
0*
04
#3040000
b10000000000 [
1*
14
#3045000
0*
04
#3050000
b10000000000 [
1*
14
#3055000
0*
04
#3060000
b10000000000 [
1*
14
#3065000
0*
04
#3070000
b10000000000 [
1*
14
#3075000
0*
04
#3080000
b10000000000 [
1*
14
#3085000
0*
04
#3090000
b10000000000 [
1*
14
#3095000
0*
04
#3100000
b10000000000 [
1*
14
#3105000
0*
04
#3110000
b10000000000 [
1*
14
#3115000
0*
04
#3120000
b10000000000 [
1*
14
#3125000
0*
04
#3130000
b10000000000 [
1*
14
#3135000
0*
04
#3140000
b10000000000 [
1*
14
#3145000
0*
04
#3150000
b10000000000 [
1*
14
#3155000
0*
04
#3160000
b10000000000 [
1*
14
#3165000
0*
04
#3170000
b10000000000 [
1*
14
#3175000
0*
04
#3180000
b10000000000 [
1*
14
#3185000
0*
04
#3190000
b10000000000 [
1*
14
#3195000
0*
04
#3200000
b10000000000 [
1*
14
#3205000
0*
04
#3210000
b10000000000 [
1*
14
#3215000
0*
04
#3220000
b10000000000 [
1*
14
#3225000
0*
04
#3230000
b10000000000 [
1*
14
#3235000
0*
04
#3240000
b10000000000 [
1*
14
#3245000
0*
04
#3250000
b10000000000 [
1*
14
#3255000
0*
04
#3260000
b10000000000 [
1*
14
#3265000
0*
04
#3270000
b10000000000 [
1*
14
#3275000
0*
04
#3280000
b10000000000 [
1*
14
#3285000
0*
04
#3290000
b10000000000 [
1*
14
#3295000
0*
04
#3300000
b10000000000 [
1*
14
#3305000
0*
04
#3310000
b10000000000 [
1*
14
#3315000
0*
04
#3320000
b10000000000 [
1*
14
#3325000
0*
04
#3330000
b10000000000 [
1*
14
#3335000
0*
04
#3340000
b10000000000 [
1*
14
#3345000
0*
04
#3350000
b10000000000 [
1*
14
#3355000
0*
04
#3360000
b10000000000 [
1*
14
#3365000
0*
04
#3370000
b10000000000 [
1*
14
#3375000
0*
04
#3380000
b10000000000 [
1*
14
#3385000
0*
04
#3390000
b10000000000 [
1*
14
#3395000
0*
04
#3400000
b10000000000 [
1*
14
#3405000
0*
04
#3410000
b10000000000 [
1*
14
#3415000
0*
04
#3420000
b10000000000 [
1*
14
#3425000
0*
04
#3430000
b10000000000 [
1*
14
#3435000
0*
04
#3440000
b10000000000 [
1*
14
#3445000
0*
04
#3450000
b10000000000 [
1*
14
#3455000
0*
04
#3460000
b10000000000 [
1*
14
#3465000
0*
04
#3470000
b10000000000 [
1*
14
#3475000
0*
04
#3480000
b10000000000 [
1*
14
#3485000
0*
04
#3490000
b10000000000 [
1*
14
#3495000
0*
04
#3500000
b10000000000 [
1*
14
#3505000
0*
04
#3510000
b10000000000 [
1*
14
#3515000
0*
04
#3520000
b10000000000 [
1*
14
#3525000
0*
04
#3530000
b10000000000 [
1*
14
#3535000
0*
04
#3540000
b10000000000 [
1*
14
#3545000
0*
04
#3550000
b10000000000 [
1*
14
#3555000
0*
04
#3560000
b10000000000 [
1*
14
#3565000
0*
04
#3570000
b10000000000 [
1*
14
#3575000
0*
04
#3580000
b10000000000 [
1*
14
#3585000
0*
04
#3590000
b10000000000 [
1*
14
#3595000
0*
04
#3600000
b10000000000 [
1*
14
#3605000
0*
04
#3610000
b10000000000 [
1*
14
#3615000
0*
04
#3620000
b10000000000 [
1*
14
#3625000
0*
04
#3630000
b10000000000 [
1*
14
#3635000
0*
04
#3640000
b10000000000 [
1*
14
#3645000
0*
04
#3650000
b10000000000 [
1*
14
#3655000
0*
04
#3660000
b10000000000 [
1*
14
#3665000
0*
04
#3670000
b10000000000 [
1*
14
#3675000
0*
04
#3680000
b10000000000 [
1*
14
#3685000
0*
04
#3690000
b10000000000 [
1*
14
#3695000
0*
04
#3700000
b10000000000 [
1*
14
#3705000
0*
04
#3710000
b10000000000 [
1*
14
#3715000
0*
04
#3720000
b10000000000 [
1*
14
#3725000
0*
04
#3730000
b10000000000 [
1*
14
#3735000
0*
04
#3740000
b10000000000 [
1*
14
#3745000
0*
04
#3750000
b10000000000 [
1*
14
#3755000
0*
04
#3760000
b10000000000 [
1*
14
#3765000
0*
04
#3770000
b10000000000 [
1*
14
#3775000
0*
04
#3780000
b10000000000 [
1*
14
#3785000
0*
04
#3790000
b10000000000 [
1*
14
#3795000
0*
04
#3800000
b10000000000 [
1*
14
#3805000
0*
04
#3810000
b10000000000 [
1*
14
#3815000
0*
04
#3820000
b10000000000 [
1*
14
#3825000
0*
04
#3830000
b10000000000 [
1*
14
#3835000
0*
04
#3840000
b10000000000 [
1*
14
#3845000
0*
04
#3850000
b10000000000 [
1*
14
#3855000
0*
04
#3860000
b10000000000 [
1*
14
#3865000
0*
04
#3870000
b10000000000 [
1*
14
#3875000
0*
04
#3880000
b10000000000 [
1*
14
#3885000
0*
04
#3890000
b10000000000 [
1*
14
#3895000
0*
04
#3900000
b10000000000 [
1*
14
#3905000
0*
04
#3910000
b10000000000 [
1*
14
#3915000
0*
04
#3920000
b10000000000 [
1*
14
#3925000
0*
04
#3930000
b10000000000 [
1*
14
#3935000
0*
04
#3940000
b10000000000 [
1*
14
#3945000
0*
04
#3950000
b10000000000 [
1*
14
#3955000
0*
04
#3960000
b10000000000 [
1*
14
#3965000
0*
04
#3970000
b10000000000 [
1*
14
#3975000
0*
04
#3980000
b10000000000 [
1*
14
#3985000
0*
04
#3990000
b10000000000 [
1*
14
#3995000
0*
04
#4000000
b10000000000 [
1*
14
#4005000
0*
04
#4010000
b10000000000 [
1*
14
#4015000
0*
04
#4020000
b10000000000 [
1*
14
#4025000
0*
04
#4030000
b10000000000 [
1*
14
#4035000
0*
04
#4040000
b10000000000 [
1*
14
#4045000
0*
04
#4050000
b10000000000 [
1*
14
#4055000
0*
04
#4060000
b10000000000 [
1*
14
#4065000
0*
04
#4070000
b10000000000 [
1*
14
#4075000
0*
04
#4080000
b10000000000 [
1*
14
#4085000
0*
04
#4090000
b10000000000 [
1*
14
#4095000
0*
04
#4100000
b10000000000 [
1*
14
#4105000
0*
04
#4110000
b10000000000 [
1*
14
#4115000
0*
04
#4120000
b10000000000 [
1*
14
#4125000
0*
04
#4130000
b10000000000 [
1*
14
#4135000
0*
04
#4140000
b10000000000 [
1*
14
#4145000
0*
04
#4150000
b10000000000 [
1*
14
#4155000
0*
04
#4160000
b10000000000 [
1*
14
#4165000
0*
04
#4170000
b10000000000 [
1*
14
#4175000
0*
04
#4180000
b10000000000 [
1*
14
#4185000
0*
04
#4190000
b10000000000 [
1*
14
#4195000
0*
04
#4200000
b10000000000 [
1*
14
#4205000
0*
04
#4210000
b10000000000 [
1*
14
#4215000
0*
04
#4220000
b10000000000 [
1*
14
#4225000
0*
04
#4230000
b10000000000 [
1*
14
#4235000
0*
04
#4240000
b10000000000 [
1*
14
#4245000
0*
04
#4250000
b10000000000 [
1*
14
#4255000
0*
04
#4260000
b10000000000 [
1*
14
#4265000
0*
04
#4270000
b10000000000 [
1*
14
#4275000
0*
04
#4280000
b10000000000 [
1*
14
#4285000
0*
04
#4290000
b10000000000 [
1*
14
#4295000
0*
04
#4300000
b10000000000 [
1*
14
#4305000
0*
04
#4310000
b10000000000 [
1*
14
#4315000
0*
04
#4320000
b10000000000 [
1*
14
#4325000
0*
04
#4330000
b10000000000 [
1*
14
#4335000
0*
04
#4340000
b10000000000 [
1*
14
#4345000
0*
04
#4350000
b10000000000 [
1*
14
#4355000
0*
04
#4360000
b10000000000 [
1*
14
#4365000
0*
04
#4370000
b10000000000 [
1*
14
#4375000
0*
04
#4380000
b10000000000 [
1*
14
#4385000
0*
04
#4390000
b10000000000 [
1*
14
#4395000
0*
04
#4400000
b10000000000 [
1*
14
#4405000
0*
04
#4410000
b10000000000 [
1*
14
#4415000
0*
04
#4420000
b10000000000 [
1*
14
#4425000
0*
04
#4430000
b10000000000 [
1*
14
#4435000
0*
04
#4440000
b10000000000 [
1*
14
#4445000
0*
04
#4450000
b10000000000 [
1*
14
#4455000
0*
04
#4460000
b10000000000 [
1*
14
#4465000
0*
04
#4470000
b10000000000 [
1*
14
#4475000
0*
04
#4480000
b10000000000 [
1*
14
#4485000
0*
04
#4490000
b10000000000 [
1*
14
#4495000
0*
04
#4500000
b10000000000 [
1*
14
#4505000
0*
04
#4510000
b10000000000 [
1*
14
#4515000
0*
04
#4520000
b10000000000 [
1*
14
#4525000
0*
04
#4530000
b10000000000 [
1*
14
#4535000
0*
04
#4540000
b10000000000 [
1*
14
#4545000
0*
04
#4550000
b10000000000 [
1*
14
#4555000
0*
04
#4560000
b10000000000 [
1*
14
#4565000
0*
04
#4570000
b10000000000 [
1*
14
#4575000
0*
04
#4580000
b10000000000 [
1*
14
#4585000
0*
04
#4590000
b10000000000 [
1*
14
#4595000
0*
04
#4600000
b10000000000 [
1*
14
#4605000
0*
04
#4610000
b10000000000 [
1*
14
#4615000
0*
04
