HW2/FPU/fpu.vcd
$date
	Sun Oct 30 23:34:01 2022
$end
$version
	Icarus Verilog
$end
$timescale
	1ps
$end
$scope module test_fpu $end
$var wire 1 ! ovalid $end
$var wire 1 " rst_n $end
$var wire 32 # odata [31:0] $end
$var wire 1 $ ivalid $end
$var wire 1 % inst $end
$var wire 32 & idata_b [31:0] $end
$var wire 32 ' idata_a [31:0] $end
$var wire 1 ( clk $end
$scope module u_clk $end
$var reg 1 ( clk $end
$var reg 1 " rst_n $end
$upscope $end
$scope module u_fpu $end
$var wire 1 ( i_clk $end
$var wire 1 " i_rst_n $end
$var wire 32 ) o_data [31:0] $end
$var wire 1 ! o_valid $end
$var wire 1 $ i_valid $end
$var wire 1 % i_inst $end
$var wire 32 * i_data_b [31:0] $end
$var wire 32 + i_data_a [31:0] $end
$var reg 32 , tmp [31:0] $end
$scope module add1 $end
$var wire 1 - fr1s $end
$var wire 1 . fr2s $end
$var wire 1 / ss $end
$var wire 24 0 sh_fr1 [23:0] $end
$var wire 24 1 sh_buf [23:0] $end
$var wire 8 2 sh1 [7:0] $end
$var wire 24 3 rfrs [23:0] $end
$var wire 8 4 rexs [7:0] $end
$var wire 32 5 result [31:0] $end
$var wire 1 6 mul_fr2 $end
$var wire 1 7 mul_fr1 $end
$var wire 1 8 mul_ex1 $end
$var wire 32 9 i_data_b [31:0] $end
$var wire 32 : i_data_a [31:0] $end
$var wire 24 ; frs [23:0] $end
$var wire 24 < fr2 [23:0] $end
$var wire 24 = fr1 [23:0] $end
$var wire 8 > exs [7:0] $end
$var wire 9 ? ex_dif [8:0] $end
$var wire 8 @ ex1 [7:0] $end
$scope module con1 $end
$var wire 1 8 ex1 $end
$var wire 9 A ex_dif_tmp [8:0] $end
$var wire 1 7 fr1 $end
$var wire 1 6 fr2 $end
$var wire 8 B sh1 [7:0] $end
$var wire 1 C ge0 $end
$var wire 9 D ex_dif [8:0] $end
$var reg 8 E sh [7:0] $end
$upscope $end
$scope module fla $end
$var wire 8 F exs [7:0] $end
$var wire 1 - sa $end
$var wire 1 . sb $end
$var wire 32 G tmpw [31:0] $end
$var wire 1 / ss $end
$var wire 24 H s [23:0] $end
$var wire 8 I ex [7:0] $end
$var wire 24 J b [23:0] $end
$var wire 24 K a [23:0] $end
$var reg 32 L tmpa [31:0] $end
$var reg 32 M tmpb [31:0] $end
$var reg 8 N tmpex [7:0] $end
$var reg 32 O tmps [31:0] $end
$var reg 1 / tmpss $end
$var reg 32 P ttmps [31:0] $end
$var integer 32 Q i [31:0] $end
$var integer 32 R j [31:0] $end
$upscope $end
$scope module flr $end
$var wire 8 S exs [7:0] $end
$var wire 24 T frs [23:0] $end
$var wire 1 - s1 $end
$var wire 1 / ss $end
$var wire 1 U s $end
$var wire 24 V rfrs [23:0] $end
$var wire 8 W rexs [7:0] $end
$var wire 1 X r $end
$var wire 1 Y l $end
$var wire 24 Z fr1_buf [23:0] $end
$var reg 8 [ tmpex [7:0] $end
$var reg 25 \ tmps [24:0] $end
$upscope $end
$scope module multi1 $end
$var wire 8 ] a [7:0] $end
$var wire 8 ^ b [7:0] $end
$var wire 1 8 select $end
$var wire 8 _ s [7:0] $end
$upscope $end
$scope module multi2 $end
$var wire 24 ` a [23:0] $end
$var wire 24 a b [23:0] $end
$var wire 1 7 select $end
$var wire 24 b s [23:0] $end
$upscope $end
$scope module multi3 $end
$var wire 24 c a [23:0] $end
$var wire 24 d b [23:0] $end
$var wire 1 6 select $end
$var wire 24 e s [23:0] $end
$upscope $end
$scope module shr1 $end
$var wire 24 f a [23:0] $end
$var wire 8 g b [7:0] $end
$var wire 24 h s_buf [23:0] $end
$var wire 24 i s [23:0] $end
$var reg 8 j bits [7:0] $end
$var reg 48 k tmp [47:0] $end
$upscope $end
$scope module subs $end
$var wire 9 l a [8:0] $end
$var wire 9 m b [8:0] $end
$var wire 9 n s [8:0] $end
$scope module adds $end
$var wire 9 o a [8:0] $end
$var wire 9 p b [8:0] $end
$var wire 9 q s [8:0] $end
$var wire 9 r tmp [8:0] $end
$upscope $end
$upscope $end
$upscope $end
$scope module multiply1 $end
$var wire 1 s s $end
$var wire 24 t rfrs [23:0] $end
$var wire 8 u rexs [7:0] $end
$var wire 32 v result [31:0] $end
$var wire 32 w i_data_b [31:0] $end
$var wire 32 x i_data_a [31:0] $end
$var reg 9 y tmpex [8:0] $end
$var reg 48 z tmpsum [47:0] $end
$scope module flr $end
$var wire 8 { exs [7:0] $end
$var wire 24 | fr1_buf [23:0] $end
$var wire 24 } frs [23:0] $end
$var wire 1 s s1 $end
$var wire 1 s ss $end
$var wire 1 ~ s $end
$var wire 24 !" rfrs [23:0] $end
$var wire 8 "" rexs [7:0] $end
$var wire 1 #" r $end
$var wire 1 $" l $end
$var reg 8 %" tmpex [7:0] $end
$var reg 25 &" tmps [24:0] $end
$upscope $end
$upscope $end
$upscope $end
$scope module u_fpu_test $end
$var wire 1 ( i_clk $end
$var wire 32 '" i_data [31:0] $end
$var wire 1 " i_rst_n $end
$var wire 1 ! i_valid $end
$var reg 2 (" cs [1:0] $end
$var reg 2 )" ns [1:0] $end
$var reg 32 *" o_data_a [31:0] $end
$var reg 32 +" o_data_b [31:0] $end
$var reg 1 % o_inst $end
$var reg 1 $ o_valid $end
$var integer 32 ," total_error [31:0] $end
$scope begin test_unit[0] $end
$scope module inst $end
$var wire 1 ( i_clk $end
$var wire 32 -" i_data [31:0] $end
$var wire 1 " i_rst_n $end
$var wire 1 ." i_start $end
$var wire 1 ! i_valid $end
$var wire 32 /" o_data_a [31:0] $end
$var wire 32 0" o_data_b [31:0] $end
$var wire 1 1" o_valid $end
$var wire 1 2" test_finish $end
$var wire 32 3" output_data [31:0] $end
$var wire 1 4" o_inst $end
$var wire 1 5" o_done $end
$var wire 32 6" input_B [31:0] $end
$var wire 32 7" input_A [31:0] $end
$var reg 3 8" cs_ [2:0] $end
$var reg 4 9" idx_r [3:0] $end
$var reg 4 :" idx_w [3:0] $end
$var reg 3 ;" ns_ [2:0] $end
$var reg 32 <" o_data_a_r [31:0] $end
$var reg 32 =" o_data_a_w [31:0] $end
$var reg 32 >" o_data_b_r [31:0] $end
$var reg 32 ?" o_data_b_w [31:0] $end
$var reg 1 @" o_valid_r $end
$var reg 1 A" o_valid_w $end
$var integer 32 B" error [31:0] $end
$upscope $end
$upscope $end
$scope begin test_unit[1] $end
$scope module inst $end
$var wire 1 ( i_clk $end
$var wire 32 C" i_data [31:0] $end
$var wire 1 " i_rst_n $end
$var wire 1 D" i_start $end
$var wire 1 ! i_valid $end
$var wire 32 E" o_data_a [31:0] $end
$var wire 32 F" o_data_b [31:0] $end
$var wire 1 G" o_valid $end
$var wire 1 H" test_finish $end
$var wire 32 I" output_data [31:0] $end
$var wire 1 J" o_inst $end
$var wire 1 K" o_done $end
$var wire 32 L" input_B [31:0] $end
$var wire 32 M" input_A [31:0] $end
$var reg 3 N" cs_ [2:0] $end
$var reg 4 O" idx_r [3:0] $end
$var reg 4 P" idx_w [3:0] $end
$var reg 3 Q" ns_ [2:0] $end
$var reg 32 R" o_data_a_r [31:0] $end
$var reg 32 S" o_data_a_w [31:0] $end
$var reg 32 T" o_data_b_r [31:0] $end
$var reg 32 U" o_data_b_w [31:0] $end
$var reg 1 V" o_valid_r $end
$var reg 1 W" o_valid_w $end
$var integer 32 X" error [31:0] $end
$upscope $end
$upscope $end
$upscope $end
$upscope $end
$enddefinitions $end
#0
$dumpvars
bx X"
0W"
xV"
b0 U"
bx T"
b0 S"
bx R"
b0 Q"
bx P"
bx O"
bx N"
bx M"
bx L"
xK"
xJ"
bx I"
xH"
xG"
bx F"
bx E"
xD"
bx C"
bx B"
0A"
x@"
b0 ?"
bx >"
b0 ="
bx <"
b0 ;"
bx :"
bx 9"
bx 8"
bx 7"
bx 6"
x5"
x4"
bx 3"
x2"
x1"
bx 0"
bx /"
x."
bx -"
b0 ,"
bx +"
bx *"
bx )"
bx ("
bx '"
bx &"
bx %"
x$"
x#"
bx ""
bx !"
x~
bx }
bx |
bx {
bx z
bx y
bx x
bx w
bx v
bx u
bx t
xs
bx r
bx q
bx p
b0xxxxxxxx o
bx n
b0xxxxxxxx m
b0xxxxxxxx l
bx k
bx j
bx i
bx h
bx g
bx f
bx e
b1xxxxxxxxxxxxxxxxxxxxxxx d
b1xxxxxxxxxxxxxxxxxxxxxxx c
bx b
b1xxxxxxxxxxxxxxxxxxxxxxx a
b1xxxxxxxxxxxxxxxxxxxxxxx `
bx _
bx ^
bx ]
bx \
bx [
bx Z
xY
xX
bx W
bx V
xU
bx T
bx S
bx R
bx Q
bx P
bx O
bx N
bx M
bx L
bx K
bx J
bx I
bx H
bx G
bx F
bx E
bx D
xC
bx B
bx A
bx @
bx ?
bx >
bx =
bx <
bx ;
bx :
bx 9
x8
x7
x6
bx 5
bx 4
bx 3
bx 2
bx 1
bx 0
x/
x.
x-
bx ,
bx +
bx *
bx )
1(
bx '
bx &
x%
0$
bx #
1"
1!
$end
#2500
b111111100000000000000000000000 7"
b111111100000000000000000000000 6"
b1000000000000000000000000000000 3"
04"
b0 :"
b0x ;"
b111111101100000000000000000000 M"
b111111000000000000000000000000 L"
b111111001100000000000000000000 I"
1J"
b0 P"
b0x Q"
b1 )"
b0 0"
b0 >"
b0 /"
b0 <"
01"
0@"
02"
b0 9"
05"
b0 8"
b0 F"
b0 T"
b0 E"
b0 R"
0G"
0V"
0H"
b0 O"
0K"
b0 N"
b0 ("
0"
#5000
b1 )"
b0 B"
b0 X"
0(
#10000
1(
#15000
0(
#20000
1(
#25000
0(
#30000
1(
#35000
0(
#40000
1(
#45000
0(
#50000
1(
1"
#55000
b100000000000000000000000 3
b100000000000000000000000 V
0Y
b100000000000000000000000 ;
b100000000000000000000000 H
b100000000000000000000000 T
b100000000000000000000000 P
b100000000000000000000000 R
b0 Q
b1000000000000000000000000 O
b1000000000000000000000000 G
0U
0X
b1 4
b1 W
b1 [
b100000000000000000000000 0
b100000000000000000000000 K
b100000000000000000000000 i
b0 1
b0 Z
b0 h
b100000000000000000000000 5
0/
b1 >
b1 F
b1 S
b1 N
b100000000000000000000000 M
b100000000000000000000000 L
b0 j
b100000000000000000000000000000000000000000000000 k
06
08
b0 2
b0 B
b0 g
b0 E
b100000000000000000000000 <
b100000000000000000000000 J
b100000000000000000000000 e
b100000000000000000000000 =
b100000000000000000000000 b
b100000000000000000000000 f
b0 @
b0 I
b0 _
b100000000000000000000000 \
b100000000000000000000000 t
b100000000000000000000000 !"
17
1C
b0 A
b0 ?
b0 D
b0 n
b0 q
b0 r
b0 p
0.
0-
0#"
0~
b100000000000000000000000 &"
b10000001 u
b10000001 ""
b10000001 %"
0$"
b1000000100000000000000000000000 v
0s
b0 |
b100000000000000000000000 }
b10000001 {
b100000000000000000000000 d
b100000000000000000000000 a
b0 ^
b0 m
b100000000000000000000000 c
b100000000000000000000000 `
b0 ]
b0 l
b0 o
b100000000000000000000000000000000000000000000000 z
b110000001 y
b0 ;"
b0 Q"
0%
b0 &
b0 *
b0 9
b0 w
b0 +"
b0 '
b0 +
b0 :
b0 x
b0 *"
1."
b0x 8"
b0x N"
b1 ("
0(
#60000
b100000000000000000000000 #
b100000000000000000000000 )
b100000000000000000000000 '"
b100000000000000000000000 -"
b100000000000000000000000 C"
b100000000000000000000000 ,
1(
#65000
b0x Q"
b1 ;"
b0 N"
b0 8"
0(
#70000
1(
#75000
b111111100000000000000000000000 ?"
b111111100000000000000000000000 ="
1A"
b10 ;"
b0 Q"
b1 8"
b0x N"
0(
#80000
1(
#85000
b1000000000000000000000000 O
b10000000 >
b10000000 F
b10000000 S
b10000000 N
b1000000000000000000000000 G
b100000000000000000000000 L
b1111111 @
b1111111 I
b1111111 _
b100000000000000000000000 0
b100000000000000000000000 K
b100000000000000000000000 i
b110000001 p
b100000000000000000000000000000000000000000000000 k
b0 j
b0 2
b0 B
b0 g
b0 E
b1111111 {
b1111111 ^
b1111111 m
b1111111 ]
b0 A
b0 ?
b0 D
b0 n
b0 q
b0 r
b1111111 l
b1111111 o
b100000000000000000000000000000000000000000000000 z
b1111111 y
b0x Q"
1$
b111111100000000000000000000000 &
b111111100000000000000000000000 *
b111111100000000000000000000000 9
b111111100000000000000000000000 w
b111111100000000000000000000000 +"
b111111100000000000000000000000 '
b111111100000000000000000000000 +
b111111100000000000000000000000 :
b111111100000000000000000000000 x
b111111100000000000000000000000 *"
b1 :"
b0 ?"
b0 ="
0A"
b1 ;"
b0 N"
b111111100000000000000000000000 0"
b111111100000000000000000000000 >"
b111111100000000000000000000000 /"
b111111100000000000000000000000 <"
11"
1@"
b10 8"
0(
#90000
1(
#95000
b100000000000000000000000 M
b100000000000000000000000 <
b100000000000000000000000 J
b100000000000000000000000 e
b1000000000000000000000000 O
b1 >
b1 F
b1 S
b1 N
b1000000000000000000000000 G
b100000000000000000000000 L
b0 @
b0 I
b0 _
b100000000000000000000000 0
b100000000000000000000000 K
b100000000000000000000000 i
b0 p
b100000000000000000000000 =
b100000000000000000000000 b
b100000000000000000000000 f
b100000000000000000000000000000000000000000000000 k
b0 j
06
08
b0 2
b0 B
b0 g
b0 E
b10000001 {
b0 ^
b0 m
b0 ]
17
1C
b0 A
b0 ?
b0 D
b0 n
b0 q
b0 r
b0 l
b0 o
b100000000000000000000000000000000000000000000000 z
b110000001 y
b0 &
b0 *
b0 9
b0 w
b0 +"
b0 '
b0 +
b0 :
b0 x
b0 *"
b111111101100000000000000000000 7"
b111111000000000000000000000000 6"
b111111111100000000000000000000 3"
b111111000000000000000000000000 ?"
b111111101100000000000000000000 ="
1A"
b10 ;"
b0 Q"
b0 0"
b0 >"
b0 /"
b0 <"
01"
0@"
b1 9"
b1 8"
b0x N"
0$
b1 B"
0(
#100000
1(
#105000
b111100000000000000000000 3
b111100000000000000000000 V
b111100000000000000000000 \
b111111111100000000000000000000 5
b1111111 4
b1111111 W
b1111111 [
b111100000000000000000000 ;
b111100000000000000000000 H
b111100000000000000000000 T
b111100000000000000000000 P
b111100000000000000000000 O
b1111111 >
b1111111 F
b1111111 S
b1111111 N
b101100000000000000000000 M
b111100000000000000000000 G
b10000000000000000000000 L
b101100000000000000000000 <
b101100000000000000000000 J
b101100000000000000000000 e
b1111111 @
b1111111 I
b1111111 _
b10000000000000000000000 0
b10000000000000000000000 K
b10000000000000000000000 i
b101100000000000000000000 t
b101100000000000000000000 !"
b110000010 p
b10000000000000000000000000000000000000000000000 k
b1 j
b101100000000000000000000 &"
b111111001100000000000000000000 v
b1111110 u
b1111110 ""
b1111110 %"
b1 2
b1 B
b1 g
b1 E
b101100000000000000000000 }
b1111110 {
b1111110 ^
b1111110 m
b101100000000000000000000 c
b101100000000000000000000 `
b1111111 ]
b1 A
b1 ?
b1 D
b1 n
b1 q
b1 r
b1111111 l
b1111111 o
b101100000000000000000000000000000000000000000000 z
b1111110 y
b0x Q"
1$
b111111000000000000000000000000 &
b111111000000000000000000000000 *
b111111000000000000000000000000 9
b111111000000000000000000000000 w
b111111000000000000000000000000 +"
b111111101100000000000000000000 '
b111111101100000000000000000000 +
b111111101100000000000000000000 :
b111111101100000000000000000000 x
b111111101100000000000000000000 *"
b10 :"
b0 ?"
b0 ="
0A"
b1 ;"
b0 N"
b111111000000000000000000000000 0"
b111111000000000000000000000000 >"
b111111101100000000000000000000 /"
b111111101100000000000000000000 <"
11"
1@"
b10 8"
0(
#110000
b111111111100000000000000000000 #
b111111111100000000000000000000 )
b111111111100000000000000000000 '"
b111111111100000000000000000000 -"
b111111111100000000000000000000 C"
b111111111100000000000000000000 ,
1(
#115000
b100000000000000000000000 3
b100000000000000000000000 V
b100000000000000000000000 \
b0 5
b0 4
b0 W
b0 [
b100000000000000000000000 ;
b100000000000000000000000 H
b100000000000000000000000 T
b100000000000000000000000 P
b1000000000000000000000000 O
b1 >
b1 F
b1 S
b1 N
b100000000000000000000000 M
b1000000000000000000000000 G
b100000000000000000000000 L
b100000000000000000000000 <
b100000000000000000000000 J
b100000000000000000000000 e
b0 @
b0 I
b0 _
b100000000000000000000000 0
b100000000000000000000000 K
b100000000000000000000000 i
b100000000000000000000000 t
b100000000000000000000000 !"
b0 p
b100000000000000000000000 =
b100000000000000000000000 b
b100000000000000000000000 f
b0 j
b100000000000000000000000000000000000000000000000 k
b100000000000000000000000 &"
b1000000100000000000000000000000 v
b10000001 u
b10000001 ""
b10000001 %"
06
08
b0 2
b0 B
b0 g
b0 E
b100000000000000000000000 }
b10000001 {
b0 ^
b0 m
b100000000000000000000000 c
b100000000000000000000000 `
b0 ]
17
1C
b0 A
b0 ?
b0 D
b0 n
b0 q
b0 r
b0 l
b0 o
b100000000000000000000000000000000000000000000000 z
b110000001 y
b0 &
b0 *
b0 9
b0 w
b0 +"
b0 '
b0 +
b0 :
b0 x
b0 *"
0$
b111111101101001111110111110100 7"
b111101000000001010110111110101 6"
b111111101110010000001101100100 3"
b111101000000001010110111110101 ?"
b111111101101001111110111110100 ="
1A"
b10 ;"
b0 Q"
b0 0"
b0 >"
b0 /"
b0 <"
01"
0@"
b10 9"
b1 8"
b0x N"
0(
#120000
b0 #
b0 )
b0 '"
b0 -"
b0 C"
b0 ,
1(
#125000
1Y
b101110010000001101100100 3
b101110010000001101100100 V
1U
1X
b101110010000001101100100 \
b111111101110010000001101100100 5
b1111111 4
b1111111 W
b1111111 [
b101110010000001101100011 ;
b101110010000001101100011 H
b101110010000001101100011 T
b101010000000000000000000 1
b101010000000000000000000 Z
b101010000000000000000000 h
b101110010000001101100011 P
b101110010000001101100011 O
b1111111 >
b1111111 F
b1111111 S
b1111111 N
b101101001111110111110100 M
b101110010000001101100011 G
b1000000010101101111 L
b100000001010110111110101 =
b100000001010110111110101 b
b100000001010110111110101 f
b101101001111110111110100 <
b101101001111110111110100 J
b101101001111110111110100 e
b1111111 @
b1111111 I
b1111111 _
b1000000010101101111 0
b1000000010101101111 K
b1000000010101101111 i
b101101011111001111101101 t
b101101011111001111101101 !"
b110000110 p
b1000000010101101111101010000000000000000000 k
b101 j
1#"
1~
b101101011111001111101101 &"
b111101001101011111001111101101 v
b1111010 u
b1111010 ""
b1111010 %"
1$"
b101 2
b101 B
b101 g
b101 E
b101010011101110100001000 |
b101101011111001111101101 }
b1111010 {
b100000001010110111110101 d
b100000001010110111110101 a
b1111010 ^
b1111010 m
b101101001111110111110100 c
b101101001111110111110100 `
b1111111 ]
b101 A
b101 ?
b101 D
b101 n
b101 q
b101 r
b1111111 l
b1111111 o
b101101011111001111101101101010011101110100001000 z
b1111010 y
b0x Q"
1$
b111101000000001010110111110101 &
b111101000000001010110111110101 *
b111101000000001010110111110101 9
b111101000000001010110111110101 w
b111101000000001010110111110101 +"
b111111101101001111110111110100 '
b111111101101001111110111110100 +
b111111101101001111110111110100 :
b111111101101001111110111110100 x
b111111101101001111110111110100 *"
b11 :"
b0 ?"
b0 ="
0A"
b1 ;"
b0 N"
b111101000000001010110111110101 0"
b111101000000001010110111110101 >"
b111111101101001111110111110100 /"
b111111101101001111110111110100 <"
11"
1@"
b10 8"
0(
#130000
b111111101110010000001101100100 #
b111111101110010000001101100100 )
b111111101110010000001101100100 '"
b111111101110010000001101100100 -"
b111111101110010000001101100100 C"
b111111101110010000001101100100 ,
1(
#135000
b100000000000000000000000 3
b100000000000000000000000 V
0Y
b0 5
b0 4
b0 W
b0 [
b100000000000000000000000 ;
b100000000000000000000000 H
b100000000000000000000000 T
b100000000000000000000000 P
b1000000000000000000000000 O
b1 >
b1 F
b1 S
b1 N
b100000000000000000000000 M
b1000000000000000000000000 G
b100000000000000000000000 L
0U
0X
b100000000000000000000000 \
b100000000000000000000000 <
b100000000000000000000000 J
b100000000000000000000000 e
b0 @
b0 I
b0 _
b100000000000000000000000 0
b100000000000000000000000 K
b100000000000000000000000 i
b0 1
b0 Z
b0 h
b100000000000000000000001 t
b100000000000000000000001 !"
b0 p
b100000000000000000000000 =
b100000000000000000000000 b
b100000000000000000000000 f
b0 j
b100000000000000000000000000000000000000000000000 k
0#"
0~
b100000000000000000000001 &"
b1000000100000000000000000000001 v
b10000001 u
b10000001 ""
b10000001 %"
0$"
06
08
b0 2
b0 B
b0 g
b0 E
b0 |
b100000000000000000000000 }
b10000001 {
b100000000000000000000000 d
b100000000000000000000000 a
b0 ^
b0 m
b100000000000000000000000 c
b100000000000000000000000 `
b0 ]
17
1C
b0 A
b0 ?
b0 D
b0 n
b0 q
b0 r
b0 l
b0 o
b100000000000000000000000000000000000000000000000 z
b110000001 y
b0 &
b0 *
b0 9
b0 w
b0 +"
b0 '
b0 +
b0 :
b0 x
b0 *"
0$
b111011010011011110001100100010 7"
b111111101101001111110111110100 6"
b111111101101010110010011100110 3"
b111111101101001111110111110100 ?"
b111011010011011110001100100010 ="
1A"
b10 ;"
b0 Q"
b0 0"
b0 >"
b0 /"
b0 <"
01"
0@"
b11 9"
b1 8"
b0x N"
0(
#140000
b0 #
b0 )
b0 '"
b0 -"
b0 C"
b0 ,
1(
#145000
1Y
1U
1X
b101101010110010011100110 3
b101101010110010011100110 V
b100100010000000000000000 1
b100100010000000000000000 Z
b100100010000000000000000 h
b101101010110010011100110 \
b111111101101010110010011100110 5
b1111111 4
b1111111 W
b1111111 [
b101101010110010011100101 ;
b101101010110010011100101 H
b101101010110010011100101 T
b101101010110010011100101 P
b110011011110001100100010 =
b110011011110001100100010 b
b110011011110001100100010 f
b101101010110010011100101 O
b1111111 >
b1111111 F
b1111111 S
b1111111 N
b101101001111110111110100 M
b101101010110010011100101 G
b110011011110001 L
16
18
b101101001111110111110100 <
b101101001111110111110100 J
b101101001111110111110100 e
b1111111 @
b1111111 I
b1111111 _
b110011011110001 0
b110011011110001 K
b110011011110001 i
b100100011000111111110001 t
b100100011000111111110001 !"
07
0C
b110000001 p
b110011011110001100100010000000000000000 k
b1001 j
1#"
1~
b100100011000111111110001 &"
b111011100100011000111111110001 v
b1110111 u
b1110111 ""
b1110111 %"
1$"
b1001 2
b1001 B
b1001 g
b1001 E
b100111010001011001101000 |
b100100011000111111110001 }
b1110111 {
b101101001111110111110100 d
b101101001111110111110100 a
b1111111 ^
b1111111 m
b110011011110001100100010 c
b110011011110001100100010 `
b1110110 ]
b111110111 A
b111110111 ?
b111110111 D
b111110111 n
b111110111 q
b111110111 r
b1110110 l
b1110110 o
b100100011000111111110001100111010001011001101000 z
b1110111 y
b0x Q"
1$
b111111101101001111110111110100 &
b111111101101001111110111110100 *
b111111101101001111110111110100 9
b111111101101001111110111110100 w
b111111101101001111110111110100 +"
b111011010011011110001100100010 '
b111011010011011110001100100010 +
b111011010011011110001100100010 :
b111011010011011110001100100010 x
b111011010011011110001100100010 *"
b100 :"
b0 ?"
b0 ="
0A"
b1 ;"
b0 N"
b111111101101001111110111110100 0"
b111111101101001111110111110100 >"
b111011010011011110001100100010 /"
b111011010011011110001100100010 <"
11"
1@"
b10 8"
0(
#150000
b111111101101010110010011100110 #
b111111101101010110010011100110 )
b111111101101010110010011100110 '"
b111111101101010110010011100110 -"
b111111101101010110010011100110 C"
b111111101101010110010011100110 ,
1(
#155000
b100000000000000000000000 3
b100000000000000000000000 V
0Y
b0 5
b0 4
b0 W
b0 [
b100000000000000000000000 ;
b100000000000000000000000 H
b100000000000000000000000 T
b100000000000000000000000 P
b1000000000000000000000000 O
b1 >
b1 F
b1 S
b1 N
b100000000000000000000000 M
b1000000000000000000000000 G
b100000000000000000000000 L
0U
0X
b100000000000000000000000 \
b100000000000000000000000 <
b100000000000000000000000 J
b100000000000000000000000 e
b0 @
b0 I
b0 _
06
08
b100000000000000000000000 =
b100000000000000000000000 b
b100000000000000000000000 f
b100000000000000000000000 0
b100000000000000000000000 K
b100000000000000000000000 i
b0 1
b0 Z
b0 h
b100000000000000000000001 t
b100000000000000000000001 !"
17
1C
b0 p
b0 j
b100000000000000000000000000000000000000000000000 k
0#"
0~
b100000000000000000000001 &"
b1000000100000000000000000000001 v
b10000001 u
b10000001 ""
b10000001 %"
0$"
b0 2
b0 B
b0 g
b0 E
b0 |
b100000000000000000000000 }
b10000001 {
b100000000000000000000000 d
b100000000000000000000000 a
b0 ^
b0 m
b100000000000000000000000 c
b100000000000000000000000 `
b0 ]
b0 A
b0 ?
b0 D
b0 n
b0 q
b0 r
b0 l
b0 o
b100000000000000000000000000000000000000000000000 z
b110000001 y
b0 &
b0 *
b0 9
b0 w
b0 +"
b0 '
b0 +
b0 :
b0 x
b0 *"
0$
b111111101101001111110111110100 ?"
b111011010011011110001100100010 ="
1A"
b10 ;"
b0 Q"
b0 0"
b0 >"
b0 /"
b0 <"
01"
0@"
b100 9"
b1 8"
b0x N"
0(
#160000
b0 #
b0 )
b0 '"
b0 -"
b0 C"
b0 ,
1(
#165000
1Y
1U
1X
b101101010110010011100110 3
b101101010110010011100110 V
b100100010000000000000000 1
b100100010000000000000000 Z
b100100010000000000000000 h
b101101010110010011100110 \
b111111101101010110010011100110 5
b1111111 4
b1111111 W
b1111111 [
b101101010110010011100101 ;
b101101010110010011100101 H
b101101010110010011100101 T
b101101010110010011100101 P
b110011011110001100100010 =
b110011011110001100100010 b
b110011011110001100100010 f
b101101010110010011100101 O
b1111111 >
b1111111 F
b1111111 S
b1111111 N
b101101001111110111110100 M
b101101010110010011100101 G
b110011011110001 L
16
18
b101101001111110111110100 <
b101101001111110111110100 J
b101101001111110111110100 e
b1111111 @
b1111111 I
b1111111 _
b110011011110001 0
b110011011110001 K
b110011011110001 i
b100100011000111111110001 t
b100100011000111111110001 !"
07
0C
b110000001 p
b110011011110001100100010000000000000000 k
b1001 j
1#"
1~
b100100011000111111110001 &"
b111011100100011000111111110001 v
b1110111 u
b1110111 ""
b1110111 %"
1$"
b1001 2
b1001 B
b1001 g
b1001 E
b100111010001011001101000 |
b100100011000111111110001 }
b1110111 {
b101101001111110111110100 d
b101101001111110111110100 a
b1111111 ^
b1111111 m
b110011011110001100100010 c
b110011011110001100100010 `
b1110110 ]
b111110111 A
b111110111 ?
b111110111 D
b111110111 n
b111110111 q
b111110111 r
b1110110 l
b1110110 o
b100100011000111111110001100111010001011001101000 z
b1110111 y
b0x Q"
1$
b111111101101001111110111110100 &
b111111101101001111110111110100 *
b111111101101001111110111110100 9
b111111101101001111110111110100 w
b111111101101001111110111110100 +"
b111011010011011110001100100010 '
b111011010011011110001100100010 +
b111011010011011110001100100010 :
b111011010011011110001100100010 x
b111011010011011110001100100010 *"
b101 :"
b0 ?"
b0 ="
0A"
b1 ;"
b0 N"
b111111101101001111110111110100 0"
b111111101101001111110111110100 >"
b111011010011011110001100100010 /"
b111011010011011110001100100010 <"
11"
1@"
b10 8"
0(
#170000
b111111101101010110010011100110 #
b111111101101010110010011100110 )
b111111101101010110010011100110 '"
b111111101101010110010011100110 -"
b111111101101010110010011100110 C"
b111111101101010110010011100110 ,
1(
#175000
b100000000000000000000000 3
b100000000000000000000000 V
0Y
b0 5
b0 4
b0 W
b0 [
b100000000000000000000000 ;
b100000000000000000000000 H
b100000000000000000000000 T
b100000000000000000000000 P
b1000000000000000000000000 O
b1 >
b1 F
b1 S
b1 N
b100000000000000000000000 M
b1000000000000000000000000 G
b100000000000000000000000 L
0U
0X
b100000000000000000000000 \
b100000000000000000000000 <
b100000000000000000000000 J
b100000000000000000000000 e
b0 @
b0 I
b0 _
06
08
b100000000000000000000000 =
b100000000000000000000000 b
b100000000000000000000000 f
b100000000000000000000000 0
b100000000000000000000000 K
b100000000000000000000000 i
b0 1
b0 Z
b0 h
b100000000000000000000001 t
b100000000000000000000001 !"
17
1C
b0 p
b0 j
b100000000000000000000000000000000000000000000000 k
0#"
0~
b100000000000000000000001 &"
b1000000100000000000000000000001 v
b10000001 u
b10000001 ""
b10000001 %"
0$"
b0 2
b0 B
b0 g
b0 E
b0 |
b100000000000000000000000 }
b10000001 {
b100000000000000000000000 d
b100000000000000000000000 a
b0 ^
b0 m
b100000000000000000000000 c
b100000000000000000000000 `
b0 ]
b0 A
b0 ?
b0 D
b0 n
b0 q
b0 r
b0 l
b0 o
b100000000000000000000000000000000000000000000000 z
b110000001 y
b0 &
b0 *
b0 9
b0 w
b0 +"
b0 '
b0 +
b0 :
b0 x
b0 *"
0$
b10111011010011011110001100100010 7"
b111111101101001001011100000010 3"
b111111101101001111110111110100 ?"
b10111011010011011110001100100010 ="
1A"
b10 ;"
b0 Q"
b0 0"
b0 >"
b0 /"
b0 <"
01"
0@"
b101 9"
b1 8"
b0x N"
0(
#180000
b0 #
b0 )
b0 '"
b0 -"
b0 C"
b0 ,
1(
